…
## Use

``` r
library(understatr)
```

### Check currently available leagues/seasons:

``` r
get_league_meta()
```

    ## # A tibble: 30 x 4
    ##    league_name year  season    url                                      
    ##    <chr>       <chr> <chr>     <chr>                                    
    ##  1 EPL         2018  2018/2019 https://understat.com/league/EPL/2018    
    ##  2 EPL         2017  2017/2018 https://understat.com/league/EPL/2017    
    ##  3 EPL         2016  2016/2017 https://understat.com/league/EPL/2016    
    ##  4 EPL         2015  2015/2016 https://understat.com/league/EPL/2015    
    ##  5 EPL         2014  2014/2015 https://understat.com/league/EPL/2014    
    ##  6 La liga     2018  2018/2019 https://understat.com/league/La_liga/2018
    ##  7 La liga     2017  2017/2018 https://understat.com/league/La_liga/2017
    ##  8 La liga     2016  2016/2017 https://understat.com/league/La_liga/2016
    ##  9 La liga     2015  2015/2016 https://understat.com/league/La_liga/2015
    ## 10 La liga     2014  2014/2015 https://understat.com/league/La_liga/2014
    ## # ... with 20 more rows

### Get stats for a team’s playing squad in a league season:

``` r
get_team_squad_stats(team_name = "Manchester City", year = 2018)
```

    ## # A tibble: 21 x 20
    ##    team_name  year player_name player_id games time  goals xG    assists
    ##  * <chr>     <dbl> <chr>       <chr>     <chr> <chr> <chr> <chr> <chr>  
    ##  1 Manchest…  2018 Raheem Ste… 618       13    1126  8     6.59… 6      
    ##  2 Manchest…  2018 Sergio Agü… 619       13    986   8     8.76… 4      
    ##  3 Manchest…  2018 Leroy Sané  337       14    821   6     4.91… 5      
    ##  4 Manchest…  2018 David Silva 617       14    1094  5     4.40… 2      
    ##  5 Manchest…  2018 Riyad Mahr… 750       15    753   5     4.56… 2      
    ##  6 Manchest…  2018 Bernardo S… 3635      15    1233  4     3.45… 3      
    ##  7 Manchest…  2018 Ilkay Günd… 314       11    568   3     2.29… 2      
    ##  8 Manchest…  2018 Fernandinho 614       16    1418  1     0.95… 2      
    ##  9 Manchest…  2018 Kyle Walker 638       13    1170  1     0.22… 0      
    ## 10 Manchest…  2018 Aymeric La… 2498      16    1351  1     1.56… 0      
    ## # ... with 11 more rows, and 11 more variables: xA <chr>, shots <chr>,
    ## #   key_passes <chr>, yellow_cards <chr>, red_cards <chr>, position <chr>,
    ## #   team_name.1 <chr>, npg <chr>, npxG <chr>, xGChain <chr>,
    ## #   xGBuildup <chr>
…
